{
	"info": {
		"_postman_id": "e4f2e359-0a46-4a7a-8a52-97893377bd76",
		"name": "Todolist",
		"schema": "https://schema.getpostman.com/json/collection/v2.1.0/collection.json"
	},
	"item": [
		{
			"name": "Get items",
			"request": {
				"method": "GET",
				"header": []
			},
			"response": []
		},
		{
			"name": "Count all items",
			"request": {
				"method": "GET",
				"header": [],
				"url": {
					"raw": "http://localhost:3000/api/tasks/count",
					"protocol": "http",
					"host": [
						"localhost"
					],
					"port": "3000",
					"path": [
						"api",
						"tasks",
						"count"
					]
				}
			},
			"response": []
		},
		{
			"name": "Delete item by id",
			"request": {
				"method": "DELETE",
				"header": [],
				"url": {
					"raw": "http://localhost:3000/api/tasks/:id",
					"protocol": "http",
					"host": [
						"localhost"
					],
					"port": "3000",
					"path": [
						"api",
						"tasks",
						":id"
					],
					"variable": [
						{
							"key": "id",
							"value": "1",
							"description": "parameter id represents an index of record\nparameter id represents an index of record"
						}
					]
				}
			},
			"response": []
		},
		{
			"name": "Update item by id",
			"request": {
				"method": "PATCH",
				"header": [],
				"body": {
					"mode": "raw",
					"raw": "{\r\n    \"status\": true,\r\n    \"name\": \"\"\r\n}",
					"options": {
						"raw": {
							"language": "json"
						}
					}
				},
				"url": {
					"raw": "http://localhost:3000/api/tasks/:id",
					"protocol": "http",
					"host": [
						"localhost"
					],
					"port": "3000",
					"path": [
						"api",
						"tasks",
						":id"
					],
					"variable": [
						{
							"key": "id",
							"value": "1",
							"description": "parameter id represents an index of record\nparameter id represents an index of record"
						}
					]
				}
			},
			"response": []
		}
	]
}